{
    "DATABASE": {
        "DB_CLASS": "MongoDb",
        "DB_CONNECTION_SETTINGS": {
            "HOST": "mongodb://si_mongo",
            "PORT": "27017"
        },
        "TABLE_LIST": [
            {
                "NICKNAME": "ShowImages",
                "TABLE_NAME": "shopimages",
                "SCHEMA": {
                    "collection_name": "brands",
                    "collection_info": {
                        "id": "_id",
                        "item_id" : "brand_id",
                        "subitems_name": "image_info",
                        "primary_subitems_prefix": "01_",
                        "subitems_type": "image",
                        "sub_items": {
                            "fs_id": "id",
                            "sub_item_name": "name"
                        }
                    }
                }
            }
        ]
    }
}
